PartNumber,SIM,ZipCode,PIN,Status,CellTech,PlanType,PlanName,AutoRefill,cardType,isActive,carrier,isIphone,isLTE,isHD,isTrio
TFBYOPC,TF256PSIMV9DD,33178,TSAPP40120,NEW,BYOP,payasyougo,199,N,Discover,NO,Verizon,yes,yes,yes,yes
TFBYOPC,TF256PSIMV9DD,33178,TSAPP40120,NEW,BYOP,payasyougo,199,N,Discover,NO,Verizon,yes,yes,yes,yes
TFBYOPC,TF256PSIMV9DD,33178,TSAPP40120,NEW,BYOP,payasyougo,199,N,Discover,NO,Verizon,yes,yes,yes,yes
TFBYOPC,TF256PSIMV9DD,33178,TSAPP40120,NEW,BYOP,payasyougo,199,N,Discover,NO,Verizon,yes,yes,yes,yes
TFBYOPC,TF256PSIMV9DD,33178,TSAPP40120,NEW,BYOP,payasyougo,199,N,Discover,NO,Verizon,yes,yes,yes,yes