PartNumber,SIM,ZipCode,PIN,Status,CellTech,noOfLines,shopplan,PlanName,AutoRefill
TFLGL48VCFDP,TF256PSIMV9N,33178,TFSAPP1SPH1500,NEW,CDMA,2,smartphone,125,YES
TFALA383GDMP4SV,TF64SIMC4,33178,TSAPP40300,NEW,CDMA,2,payasyougo,159,YES
TFALA383GDM3P5SV,TF64SIMT5,33178,TSAPP40300,NEW,CDMA,2,addon,10ILD,YES
TFLGL48VCFDP,TF256PSIMV9N,33178,TFSAPP1SPH1500,NEW,CDMA,2,smartphone,125,YES
TFALA383GDMP4SV,TF64SIMC4,33178,TSAPP40300,NEW,CDMA,2,payasyougo,159,YES
TFALA383GDM3P5SV,TF64SIMT5,33178,TSAPP40300,NEW,CDMA,2,addon,10ILD,YES
TFLGL48VCFDP,TF256PSIMV9N,33178,TFSAPP1SPH1500,NEW,CDMA,2,smartphone,125,YES
TFALA383GDMP4SV,TF64SIMC4,33178,TSAPP40300,NEW,CDMA,2,payasyougo,159,YES
TFALA383GDM3P5SV,TF64SIMT5,33178,TSAPP40300,NEW,CDMA,2,addon,10ILD,YES
TFLGL48VCFDP,TF256PSIMV9N,33178,TFSAPP1SPH1500,NEW,CDMA,2,smartphone,125,YES
TFALA383GDMP4SV,TF64SIMC4,33178,TSAPP40300,NEW,CDMA,2,payasyougo,159,YES
TFALA383GDM3P5SV,TF64SIMT5,33178,TSAPP40300,NEW,CDMA,2,addon,10ILD,YES
TFLGL48VCFDP,TF256PSIMV9N,33178,TFSAPP1SPH1500,NEW,CDMA,2,smartphone,125,YES
TFALA383GDMP4SV,TF64SIMC4,33178,TSAPP40300,NEW,CDMA,2,payasyougo,159,YES
TFALA383GDM3P5SV,TF64SIMT5,33178,TSAPP40300,NEW,CDMA,2,addon,10ILD,YES
