PartNumber,SIM,ZipCode,PIN,Status,CellTech,shopplan,PlanName,AutoRefill,cardType
PHSM64PSIMT5BMB,SM64PSIMT5BMB,33178,SMNAPP70BBUNLILD,NEW,BYOP,30dayplan,40,N,Discover
PHSM64PSIMT5NB,SM64PSIMT5NB,33178,SMNAPP60BBUNLILD,NEW,BYOP,dataonlyplan,40,N,Discover
PHSM64PSIMT5BLC,SM64PSIMT5B,33178,SMNAPP70BBUNLILD,NEW,BYOP,dataonlyplan,20,N,Discover
PHSM64PSIMT5BLC,SM64PSIMT5BLC,33178,SMNAPP60BBUNL,NEW,BYOP,30dayplan,40,N,Discover
PHSM64PSIMT5BLC,SM64PSIMT5BLC,33178,SMNAPPMB0020,NEW,BYOP,dataonlyplan,40,N,Discover
PHSM64PSIMT5B,SM64PSIMT5B,33178,SMNAPP0025TT,NEW,BYOP,dataonlyplan,20,N,Discover
PHSM64PSIMT5MB,SM64PSIMT5B,33178,SMNAPP0050BBUNL,NEW,BYOP,30dayplan,40,N,Discover
PHSM64PSIMT5MB,SM64PSIMT5MB,33178,SMNAPP20070ILDUP,NEW,BYOP,dataonlyplan,40,N,Discover
PHSM64PSIMT5BLC,SM64PSIMT5B,33178,SMNAPP30060,NEW,BYOP,dataonlyplan,20,N,Discover
PHSM64PSIMT5B,SM64PSIMT5B,33178,SMNAPPMB0040,NEW,BYOP,dataonlyplan,40,N,Discover
PHSM64PSIMT5MB,SM64PSIMT5MB,19715,SMNAPP0040UNL,NEW,BYOP,30dayplan,40,N,Discover