[
{"PartNumber":"SMZEZ986DG","SIM":"SM128PSIMT5N","ZipCode":"33178","PIN":"SMNAPP0040UNL","Status":"NEW","CellTech":"GSM","noOfLines":"2","shopplan":"30dayplan","PlanName":"40","AutoRefill":"YES","cardType":"Discover"},
{"PartNumber":"SMHUH871GDG","SIM":"SM128PSIMT5RM","ZipCode":"33178","PIN":"SMNAPP20070ILDUP","Status":"NEW","CellTech":"GSM","noOfLines":"2","shopplan":"30dayplan","PlanName":"30","AutoRefill":"NO","cardType":"Discover"},
{"PartNumber":"SMHUH871GDG","SIM":"SM128PSIMT5RM","ZipCode":"33178","PIN":"SMNAPP20070ILDUP","Status":"NEW","CellTech":"GSM","noOfLines":"2","shopplan":"30dayplan","PlanName":"30","AutoRefill":"YES","cardType":"Discover"},
{"PartNumber":"SMZEZ798BG","SIM":"SM128PSIMT5RM","ZipCode":"33178","PIN":"SMNAPP0040UNL","Status":"NEW","CellTech":"GSM","noOfLines":"2","shopplan":"30dayplan","PlanName":"50","AutoRefill":"YES","cardType":"Discover"},
{"PartNumber":"SMZEZ798BG","SIM":"SM128PSIMT5RM","ZipCode":"33178","PIN":"SMNAPP0040UNL","Status":"NEW","CellTech":"GSM","noOfLines":"2","shopplan":"30dayplan","PlanName":"50","AutoRefill":"YES","cardType":"Discover"},
{"PartNumber":"SMZEZ232TGGY","SIM":"SM128PSIMT5RM","ZipCode":"33178","PIN":"SMNAPP0040UNL","Status":"New","CellTech":"GSM","noOfLines":"2","shopplan":"30dayplan","PlanName":"30","AutoRefill":"YES","cardType":"Discover"},
{"PartNumber":"SMLGL83BG","SIM":"SM128PSIMT5N","ZipCode":"33178","PIN":"SMNAPP0025TT","Status":"NEW","CellTech":"GSM","noOfLines":"2","shopplan":"30dayplan","PlanName":"30","AutoRefill":"YES","cardType":"Discover"},
{"PartNumber":"SMZEZ986DG","SIM":"SM128PSIMT5N","ZipCode":"33178","PIN":"SMNAPP0040UNL","Status":"NEW","CellTech":"GSM","noOfLines":"2","shopplan":"30dayplan","PlanName":"50","AutoRefill":"YES","cardType":"Discover"},
{"PartNumber":"SMHUH1511DGSV","SIM":"SM128PSIMT5N","ZipCode":"33178","PIN":"SMNAPP0040UNL","Status":"NEW","CellTech":"GSM","noOfLines":"2","shopplan":"30dayplan","PlanName":"50","AutoRefill":"YES","cardType":"Discover"},
{"PartNumber":"SMSAS550TGP","SIM":"SM128PSIMT5N","ZipCode":"33178","PIN":"SMNAPP0040UNL","Status":"New","CellTech":"GSM","noOfLines":"2","shopplan":"30dayplan","PlanName":"30","AutoRefill":"YES","cardType":"Discover"},
{"PartNumber":"GPHUH1511DGSVP5-5","SIM":"SM128PSIMT5N","ZipCode":"33178","PIN":"SMNAPP0040UNL","Status":"New","CellTech":"GSM","noOfLines":"2","shopplan":"30dayplan","PlanName":"30","AutoRefill":"YES","cardType":"Discover"},
{"PartNumber":"SMALA570BGP5DG","SIM":"SM128PSIMT5RM","ZipCode":"33178","PIN":"SMNAPP0050BBUNL","Status":"New","CellTech":"GSM","noOfLines":"2","shopplan":"30dayplan","PlanName":"50","AutoRefill":"YES","cardType":"Discover"},
{"PartNumber":"SMZEZ716BG3P5","SIM":"SM128PSIMT5RM","ZipCode":"33178","PIN":"SMNAPP0025TT","Status":"New","CellTech":"GSM","noOfLines":"2","shopplan":"30dayplan","PlanName":"30","AutoRefill":"YES","cardType":"Discover"},
{"PartNumber":"SMZEZ828TG3P5","SIM":"SM128PSIMT5N","ZipCode":"33178","PIN":"SMNAPP0050BBUNL","Status":"New","CellTech":"GSM","noOfLines":"2","shopplan":"30dayplan","PlanName":"30","AutoRefill":"YES","cardType":"Discover"},
{"PartNumber":"SMHUH891GR5","SIM":"SM128PSIMT5RM","ZipCode":"33178","PIN":"SMNAPP0050BBUNL","Status":"New","CellTech":"GSM","noOfLines":"2","shopplan":"30dayplan","PlanName":"50","AutoRefill":"YES","cardType":"Discover"},
{"PartNumber":"SMHUH871GDG","SIM":"SM128PSIMT5RM","ZipCode":"33178","PIN":"SMNAPP20070ILDUP","Status":"New","CellTech":"GSM","noOfLines":"2","shopplan":"30dayplan","PlanName":"50","AutoRefill":"YES","cardType":"Discover"},
{"PartNumber":"SMZEZ836BG","SIM":"SM128PSIMT5N","ZipCode":"33178","PIN":"SMNAPP0025TT","Status":"New","CellTech":"GSM","noOfLines":"2","shopplan":"30dayplan","PlanName":"50","AutoRefill":"YES","cardType":"Discover"},
{"PartNumber":"SMZEZ798BG","SIM":"SM128PSIMT5RM","ZipCode":"33178","PIN":"SMNAPP0040UNL","Status":"New","CellTech":"GSM","noOfLines":"2","shopplan":"30dayplan","PlanName":"50","AutoRefill":"YES","cardType":"Discover"},
{"PartNumber":"SMLGL59BG","SIM":"SM128PSIMT5N","ZipCode":"33178","PIN":"SMNAPP0025TT","Status":"New","CellTech":"GSM","noOfLines":"2","shopplan":"30dayplan","PlanName":"30","AutoRefill":"YES","cardType":"Discover"},
{"PartNumber":"SMLGL63BG","SIM":"SM128PSIMT5N","ZipCode":"33178","PIN":"SMNAPP0040UNL","Status":"New","CellTech":"GSM","noOfLines":"2","shopplan":"30dayplan","PlanName":"30","AutoRefill":"YES","cardType":"Discover"}
]