PartNumber,SIM,ZipCode,PIN,Status,CellTech,noOfLines,shopplan,PlanName,AutoRefill, cardType,OldPart
SMHUH871GDG,SM128PSIMT5RM,33178,SMNAPP20070ILDUP,NEW,GSM,2,30dayplan,25,YES, Amex,STLG440GP
SMHUH871GDG,SM128PSIMT5RM,33178,SMNAPP0040UNL,NEW,GSM,2,30dayplan,25,YES,Amex,TWALA394CPWP
SMZEZ986DG,SM128PSIMT5N,33178,SMNAPP0040UNL,NEW,GSM,2,30dayplan,25,YES, Amex,TFLGL17AGP
SMLGL83BG2R5,SM128PSIMT5N,33178,SMNAPP0040UNL,NEW,GSM,2,30dayplan,25,YES, Amex,TFLG329GP5P
SMZEZ986DGR5,SM128PSIMT5N,33178,SMNAPP0050UNLILD,NEW,GSM,2,30dayplan,25,YES,Amex,STRM9310CPWP
SMZEZ232TGGYWHP,SM128PSIMT5RM,33178,SMNAPP0040UNL,NEW,GSM,2,30dayplan,25,YES,Amex,TCHUH715BG3P5
SMHUH1511DGSVR,SM128PSIMT5N,33178,SMNAPP0050UNLILD,NEW,GSM,2,30dayplan,25,YES, Amex,STMTXT830C
SMALA570BG3P5P,SM128PSIMT5RM,33178,SMNAPP20070ILDUP,NEW,GSM,2,30dayplan,25,YES,Amex,NTHUH871GP4SP
SMALA570BGP5DU,SM128PSIMT5N,33178,SMNAPP0050UNLILD,NEW,GSM,2,30dayplan,25,YES,Amex,TFLGL63BGP5
SMZEZ716BG3P5,SM128PSIMT5RM,33178,SMNAPP0040UNL,NEW,GSM,2,30dayplan,25,YES,Amex,TCZEZ795G3P5V2
SMZEZ818GP5P,SM128PSIMT5RM,33178,SMNAPP0040UNL,NEW,GSM,2,30dayplan,25,YES, Amex,TCZEZ795G3P5V2
SM3GCPOAGS4GP5,SM128PSIMT5RM,33178,SMNAPP0025TT,NEW,GSM,2,30dayplan,25,YES,Amex,NTHUH871GP4SP
SMHUH891GP,TF64SIMC4RM,33178,SMNAPPMB0040,NEW,GSM,2,30dayplan,25,YES,Amex,TCHUH867G3P5PV2
SMZEZ791GP5SP,SM128PSIMT5RM,33178,SMNAPP0050UNLILD,NEW,GSM,2,30dayplan,25,YES, Amex,STMTXT830C
SMZEZ667GRCS,SM128PSIMT5RM,33178,SMNAPP20070ILDUP,NEW,GSM,2,30dayplan,25,YES,Amex,NTHUH871GP4SP
SMHUH871GP5DU,SM128PSIMT5RM,33178,SMNAPP20070ILDUP,NEW,GSM,2,30dayplan,25,YES,Amex,STMTXT830C
SMZEZ930GWHP,SM128PSIMT5RM,33178,SMNAPP0050BBUNL,NEW,GSM,2,30dayplan,25,YES,Amex,TCZEZ795G3P5V2
SMZEZ836BG3P5,SM128PSIMT5N,33178,SMNAPP0025TT,NEW,GSM,2,30dayplan,25,YES,Amex,STMTXT830C
SMZEZ798BG3P5,SM128PSIMT5RM,33178,SMNAPP0040UNL,NEW,GSM,2,30dayplan,25,YES, Amex,TF3390PD2
SMLGL59BGP5P,SM128PSIMT5N,33178,SMNAPP0025TT,NEW,GSM,2,30dayplan,25,YES,Amex,STMTXT830C
SMLGL63BGP5P,SM128PSIMT5N,33178,SMNAPP0040UNL,NEW,GSM,2,30dayplan,25,YES,Amex,TFLGL51AGP4-5
