PartNumber,SIM,ZipCode,PIN,Status,CellTech,noOfLines,shopplan,PlanName,AutoRefill, cardType,OldPart,PhoneType
NTLGL95G,TF64PSIMT5,33178,NTPU0001,NEW,GSM,2,30dayplan,40,No,Visa,STLG440GP,SmartPhone
NTLG400GP4,TF64SIMT5,33178,NTBUY0300INDVP,NEW,GSM,2,30dayplan,50,No, Amex,STLG440GP,SmartPhone
NTLG0225P4,TF64SIMC4,33178,NTP30750CT,NEW,GSM,2,30dayplan,65,No, Amex,TFLGL17AGP,SmartPhone
